<?xml version="1.0" encoding="UTF-8"?>
<svg width="104px" height="209px" viewBox="0 0 104 209" version="1.1" xmlns="http://www.w3.org/2000/svg" xmlns:xlink="http://www.w3.org/1999/xlink">
    <!-- Generator: Sketch 56.3 (81716) - https://sketch.com -->
    <title>Combined Shape Copy@1.5x</title>
    <desc>Created with Sketch.</desc>
    <g id="Page-1" stroke="none" stroke-width="1" fill="none" fill-rule="evenodd">
        <g id="ecommerce-marketing-copy-2" transform="translate(-1305.000000, -3063.000000)" fill="#C5A36A" fill-rule="nonzero">
            <g id="Group-12" transform="translate(0.000000, 2324.000000)">
                <path d="M1409,739 L1409,749.000032 C1357.03914,749.269314 1315,791.474688 1315,843.498829 C1315,895.52297 1357.03914,937.728344 1409,937.997534 L1409,947.997742 C1351.51627,947.728369 1305,901.045827 1305,843.498829 C1305,785.951831 1351.51627,739.269289 1409,739 Z" id="Combined-Shape-Copy" transform="translate(1357.000000, 843.498871) rotate(-180.000000) translate(-1357.000000, -843.498871) "></path>
            </g>
        </g>
    </g>
</svg>