<?xml version="1.0" encoding="UTF-8"?>
<svg width="24px" height="21px" viewBox="0 0 24 21" version="1.1" xmlns="http://www.w3.org/2000/svg" xmlns:xlink="http://www.w3.org/1999/xlink">
    <!-- Generator: sketchtool 56.2 (101010) - https://sketch.com -->
    <title>4944D949-BE73-467F-B9F4-F40296648D4E@1.5x</title>
    <desc>Created with sketchtool.</desc>
    <g id="Page-1" stroke="none" stroke-width="1" fill="none" fill-rule="evenodd" stroke-linecap="round" stroke-linejoin="round">
        <g id="ecommerce-marketing-copy-2" transform="translate(-506.000000, -4529.000000)" stroke="#C5A36A" stroke-width="2">
            <g id="heart-(2)" transform="translate(507.000000, 4529.000000)">
                <path d="M19.84,2.61 C18.8084758,1.57799147 17.409138,0.998174379 15.95,0.998174379 C14.490862,0.998174379 13.0915242,1.57799147 12.06,2.61 L11,3.67 L9.94,2.61 C7.79161231,0.461612378 4.30838771,0.461612404 2.16000006,2.61000006 C0.0116124038,4.75838771 0.0116123778,8.24161231 2.16,10.39 L3.22,11.45 L11,19.23 L18.78,11.45 L19.84,10.39 C20.8720085,9.3584758 21.4518256,7.95913803 21.4518256,6.5 C21.4518256,5.04086197 20.8720085,3.6415242 19.84,2.61 Z" id="Path"></path>
            </g>
        </g>
    </g>
</svg>